module gitlab.com/dpixel/dp-integration-testing-with-db

go 1.20

require (
	github.com/fergusstrange/embedded-postgres v1.19.0
	github.com/jmoiron/sqlx v1.3.5
	github.com/pressly/goose/v3 v3.7.0
	github.com/stretchr/testify v1.7.0
	golang.org/x/exp v0.0.0-20221114191408-850992195362
)

require (
	github.com/davecgh/go-spew v1.1.0 // indirect
	github.com/lib/pq v1.10.7 // indirect
	github.com/pmezard/go-difflib v1.0.0 // indirect
	github.com/xi2/xz v0.0.0-20171230120015-48954b6210f8 // indirect
	gopkg.in/yaml.v3 v3.0.0-20200313102051-9f266ea9e77c // indirect
)
